{
    "file": "upgrade.json",
    "tracks": [
        {
            "n_to_save": 40,
            "selection": {
                "file": "fragments/ip3d-upgrade-loose-track-cuts.json"
            },
            "sort_order": "abs_beamspot_d0",
            "btagging_link": "btaggingLink",
            "input_name": "BTagTrackToJetAssociator",
            "output_name": "tracks",
            "variables": {
                "file": "fragments/pflow-track-variables-upgrade.json"
            },
            "ip_prefix": "btagIp_"
        }
    ]
}
